[gd_scene load_steps=5 format=2]

[ext_resource path="res://Characters/RandPitch.gd" type="Script" id=1]
[ext_resource path="res://Characters/Robot.gd" type="Script" id=2]
[ext_resource path="res://Assets/Sounds/RobotSelect.wav" type="AudioStream" id=3]

[sub_resource type="CircleShape2D" id=1]
radius = 21.1897

[node name="Robot" type="KinematicBody2D" groups=[
"Bots",
]]
collision_mask = 0
script = ExtResource( 2 )

[node name="CollisionShape2D" type="CollisionShape2D" parent="."]
shape = SubResource( 1 )

[node name="Select" type="AudioStreamPlayer" parent="."]
stream = ExtResource( 3 )
script = ExtResource( 1 )
