[gd_scene load_steps=4 format=2]

[ext_resource path="res://Assets/Robots/R1.png" type="Texture" id=1]
[ext_resource path="res://Characters/UniqueMaterial.gd" type="Script" id=2]
[ext_resource path="res://Assets/Shaders/Robot.tres" type="Material" id=3]

[node name="Sprite" type="Sprite"]
material = ExtResource( 3 )
texture = ExtResource( 1 )
offset = Vector2( 70, -220 )
script = ExtResource( 2 )
